Modules/numerically_controlled_oscillator/output/nco.vcd
$date
	Fri Sep 20 18:18:02 2019
$end
$version
	Icarus Verilog
$end
$timescale
	100ps
$end
$scope module nco_tb $end
$var wire 1 ! miso $end
$var wire 1 " br $end
$var wire 12 # amplitude [11:0] $end
$var reg 1 $ clk $end
$var reg 1 % mosi $end
$var reg 1 & reset $end
$var reg 1 ' sclk $end
$var reg 1 ( ss $end
$scope module U5_nco_tb $end
$var wire 1 $ clk $end
$var wire 1 % mosi $end
$var wire 1 & reset $end
$var wire 1 ' sclk $end
$var wire 1 ( ss $end
$var wire 14 ) phase [13:0] $end
$var wire 1 * outr $end
$var wire 1 ! miso $end
$var wire 1 " br $end
$var wire 12 + amplitude [11:0] $end
$scope module U3_opc $end
$var wire 1 $ clk $end
$var wire 1 % mosi $end
$var wire 48 , pa_word [47:0] $end
$var wire 1 & reset $end
$var wire 1 ' sclk $end
$var wire 1 ( ss $end
$var wire 8 - word_read [7:0] $end
$var wire 14 . phase [13:0] $end
$var wire 1 * outr $end
$var wire 1 ! miso $end
$var wire 1 " br $end
$var reg 48 / buffer [47:0] $end
$var reg 3 0 counter [2:0] $end
$var reg 1 1 fph $end
$var reg 2 2 mode [1:0] $end
$scope module U1_spi $end
$var wire 1 3 load $end
$var wire 1 % mosi $end
$var wire 1 ' sclk $end
$var wire 1 ( ss $end
$var wire 8 4 wordin [7:0] $end
$var wire 8 5 wordout [7:0] $end
$var wire 1 ! miso $end
$var wire 1 " br $end
$var reg 8 6 buffer [7:0] $end
$var reg 3 7 counter [2:0] $end
$upscope $end
$scope module U2_pa $end
$var wire 1 $ clk $end
$var wire 1 1 fph $end
$var wire 2 8 mode [1:0] $end
$var wire 1 & reset $end
$var wire 48 9 word [47:0] $end
$var wire 14 : phase [13:0] $end
$var reg 48 ; acc [47:0] $end
$var reg 48 < freq [47:0] $end
$upscope $end
$upscope $end
$scope module U4_pac $end
$var wire 1 $ clk $end
$var wire 1 = eo $end
$var wire 14 > phase [13:0] $end
$var wire 2 ? quadrant [1:0] $end
$var wire 12 @ amplitude [11:0] $end
$var reg 12 A address [11:0] $end
$var reg 12 B data [11:0] $end
$var reg 1 C eos $end
$upscope $end
$upscope $end
$upscope $end
$enddefinitions $end
#2700
$dumpvars
0C
b100000011001 B
b100000 A
bz @
b0 ?
b100000 >
0=
b10000000000000000000000000000000000000001 <
b1000000000000000001011100011110100000100 ;
b100000 :
bz 9
b1 8
b111 7
b10000 6
b10000 5
b100 4
03
b1 2
01
b0 0
b1000000000000000001011100011110100000100 /
b100000 .
b10000 -
bz ,
bz +
0*
b100000 )
0(
0'
0&
0%
1$
bz #
0"
0!
$end
#2705
0$
#2710
1"
b1000 -
b1000 5
b0 7
b1000 6
1$
1'
#2715
0$
#2720
1$
0'
#2725
0$
#2730
0"
b100 -
b100 5
b1 7
b100 6
b0 8
1=
1*
b0 2
b1 0
1$
1'
#2735
0$
#2740
b1100000 )
b1100000 .
b1100000 :
b1100000 >
b11000000000000000001011100011110100000101 ;
b100000011001 #
b100000011001 +
b100000011001 @
1C
1$
0'
#2745
0$
#2750
b10100000 )
b10100000 .
b10100000 :
b10100000 >
b101000000000000000001011100011110100000110 ;
b0 7
b1000000000000000001011100011110100000100 ,
b1000000000000000001011100011110100000100 9
b100001001011 #
b100001001011 +
b100001001011 @
b100001001011 B
b1100000 A
b111 0
z"
bz -
bz 5
z!
1$
1'
1(
#2755
0$
#2760
b11100000 )
b11100000 .
b11100000 :
b11100000 >
b111000000000000000001011100011110100000111 ;
b100001111101 #
b100001111101 +
b100001111101 @
b100001111101 B
b10100000 A
1$
0'
#2765
0$
#2770
b100100000 )
b100100000 .
b100100000 :
b100100000 >
b1001000000000000000001011100011110100001000 ;
b100010101111 #
b100010101111 +
b100010101111 @
b100010101111 B
b11100000 A
1$
1'
#2775
0$
#2780
b101100000 )
b101100000 .
b101100000 :
b101100000 >
b1011000000000000000001011100011110100001001 ;
b100011100001 #
b100011100001 +
b100011100001 @
b100011100001 B
b100100000 A
1$
0'
#2785
0$
#2790
b110100000 )
b110100000 .
b110100000 :
b110100000 >
b1101000000000000000001011100011110100001010 ;
b100100010011 #
b100100010011 +
b100100010011 @
b100100010011 B
b101100000 A
1$
1'
#2795
0$
#2800
b111100000 )
b111100000 .
b111100000 :
b111100000 >
b1111000000000000000001011100011110100001011 ;
b100101000101 #
b100101000101 +
b100101000101 @
b100101000101 B
b110100000 A
1$
0'
#2805
0$
#2810
b1000100000 )
b1000100000 .
b1000100000 :
b1000100000 >
b10001000000000000000001011100011110100001100 ;
b100101110110 #
b100101110110 +
b100101110110 @
b100101110110 B
b111100000 A
1$
1'
#2815
0$
#2820
b1001100000 )
b1001100000 .
b1001100000 :
b1001100000 >
b10011000000000000000001011100011110100001101 ;
b100110101000 #
b100110101000 +
b100110101000 @
b100110101000 B
b1000100000 A
1$
0'
#2825
0$
#2830
b1010100000 )
b1010100000 .
b1010100000 :
b1010100000 >
b10101000000000000000001011100011110100001110 ;
b100111011001 #
b100111011001 +
b100111011001 @
b100111011001 B
b1001100000 A
1$
1'
#2835
0$
#2840
b1011100000 )
b1011100000 .
b1011100000 :
b1011100000 >
b10111000000000000000001011100011110100001111 ;
b101000001001 #
b101000001001 +
b101000001001 @
b101000001001 B
b1010100000 A
1$
0'
#2845
0$
#2850
b1100100000 )
b1100100000 .
b1100100000 :
b1100100000 >
b11001000000000000000001011100011110100010000 ;
b1 7
b10 6
b1 8
bz ,
bz 9
b101000111010 #
b101000111010 +
b101000111010 @
0=
b101000111010 B
b1011100000 A
0*
b1 2
b0 0
0"
b10 -
b10 5
0!
1$
1'
0(
#2855
0$
#2860
bz #
bz +
bz @
b101001101010 B
b1100100000 A
0C
1$
0'
#2865
0$
#2870
1!
b1 -
b1 5
b10 7
b1 6
1$
1'
#2875
0$
#2880
1$
0'
#2885
0$
#2890
0!
b0 -
b0 5
b11 7
b0 6
1$
1'
#2895
0$
#2900
1$
0'
#2905
0$
#2910
b100 7
1$
1'
#2915
0$
#2920
1$
0'
#2925
0$
#2930
b10000000 -
b10000000 5
b101 7
b10000000 6
1$
1'
1%
#2935
0$
#2940
1$
0'
#2945
0$
#2950
b1000000 -
b1000000 5
b110 7
b1000000 6
1$
1'
0%
#2955
0$
#2960
1$
0'
#2965
0$
#2970
b100000 -
b100000 5
b111 7
b100000 6
1$
1'
#2975
0$
#2980
1$
0'
#2985
0$
#2990
1"
b10000 -
b10000 5
b0 7
b10000 6
1$
1'
#2995
0$
#3000
1$
0'
#3005
0$
#3010
0"
b1000 -
b1000 5
b1 7
b1000 6
b1 0
1$
1'
#3015
0$
#3020
1$
0'
#3025
0$
#3030
b0 7
b1000000000000000001011100011110100000100 ,
b1000000000000000001011100011110100000100 9
b111 0
z"
bz -
bz 5
z!
1$
1'
1(
